{"status":"success","total_results":721,"total_results_per_page":20,"total_pages":37,"page":0,"data":["Palm","Polaroid","RugGear","China Telecom","Colorovo","Pantech","HAUS","Getac","Azerty","Emporio Armani","PixelView","Tesco","BBK","Ziox","Maxwest","10.or","Verykool","WayteQ","Axle3D","Leica"]}