{"status":"success","total_results":3434,"total_results_per_page":20,"total_pages":172,"page":0,"data":[{"Product":{"id":"6458ca1dc795b59dc7c501bb","Brand":"ASUS","Category":"Laptops","Model":"ASUS VivoBook Pro Performance Laptop","Version":"Performance Laptop","Thumbnail":"https://i.techspecs.io/product-images-thumbnail/laptops/9282c5ec-ad24-4526-9a7e-662190178fb6.jpeg"},"Release Date":"2018-06-22","Image":"Please upgrade your plan to get access to product images"},{"Product":{"id":"63e963bba6803e6331dd7736","Brand":"Microsoft","Category":"Laptops","Model":"Microsoft Surface Laptop 2","Version":"SURFACE LAPTOP 2","Thumbnail":"https://i.techspecs.io/product-images-thumbnail/laptops/16946169-4b71-443c-9b50-2c3030ad84da.jpeg"},"Release Date":"2019-04-30","Image":"Please upgrade your plan to get access to product images"},{"Product":{"id":"646f33af1ffe7f8e5bf7ed62","Brand":"ASUS","Category":"Laptops","Model":"ASUS VivoBook Pro 15 Laptop N580GD-DB74","Version":"15 Laptop N580GD-DB74","Thumbnail":"https://i.techspecs.io/product-images-thumbnail/laptops/b3c9a0c4-fa17-4cbd-8152-432597367acd.jpeg"},"Release Date":"2018-06-22","Image":"Please upgrade your plan to get access to product images"},{"Product":{"id":"6479bfce8d5021f7b7be11f9","Brand":"ASUS","Category":"Laptops","Model":"ASUS ZenBook 13 UX331FN-DH51T Ultra-Slim Laptop","Version":"UX331FN-DH51T Ultra-Slim Laptop","Thumbnail":"https://i.techspecs.io/product-images-thumbnail/laptops/f4b8a048-4853-4abc-af79-3a9211e791f0.jpeg"},"Release Date":"2018-12-13","Image":"Please upgrade your plan to get access to product images"},{"Product":{"id":"6433dfef79b33085a7162298","Brand":"ASUS","Category":"Laptops","Model":"ASUS ZenBook 14 UX433FA-DH74 Ultra-Slim Laptop","Version":"UX433FA-DH74 Ultra-Slim Laptop","Thumbnail":"https://i.techspecs.io/product-images-thumbnail/laptops/defdf173-6d49-4c2d-85ac-5b03ca88a73e.jpeg"},"Release Date":"2018-12-13","Image":"Please upgrade your plan to get access to product images"},{"Product":{"id":"657f7dde52e5be42071a66e4","Brand":"Microsoft","Category":"Laptops","Model":"Microsoft Laptop Laptop 2","Version":"LQR-00026"},"Image":"Please upgrade your plan to get access to product images"},{"Product":{"id":"6458ca1dc795b59dc7c501eb","Brand":"ASUS","Category":"Laptops","Model":"ASUS ROG Strix Hero II GL504GM-DS74 Gaming Laptop","Version":"Hero II GL504GM-DS74 Gaming Laptop","Thumbnail":"https://i.techspecs.io/product-images-thumbnail/laptops/447cd48b-f82f-49e0-b5a1-ce538291dd4b.jpeg"},"Release Date":"2018-06-22","Image":"Please upgrade your plan to get access to product images"},{"Product":{"id":"6481a8c613efdcfbf3898b97","Brand":"ASUS","Category":"Laptops","Model":"ASUS ZenBook Flip 14 UX461FN-DH74T Ultra-Slim Convertible Laptop","Version":"14 UX461FN-DH74T Ultra-Slim Convertible Laptop","Thumbnail":"https://i.techspecs.io/product-images-thumbnail/laptops/2b6f207b-68a7-48ab-b180-abf4b67e37ae.jpeg"},"Release Date":"2018-12-13","Image":"Please upgrade your plan to get access to product images"},{"Product":{"id":"657f7dde52e5be42071a486d","Brand":"Lenovo","Category":"Laptops","Model":"Lenovo Laptop","Version":"N/A"},"Image":"Please upgrade your plan to get access to product images"},{"Product":{"id":"63e963bba6803e6331ddd67b","Brand":"Acer","Category":"Laptops","Model":"Acer Aspire 5 LAPTOP ASPIRE 5 A517-52-58VS","Version":"LAPTOP ASPIRE 5 A517-52-58VS","Thumbnail":"https://i.techspecs.io/product-images-thumbnail/laptops/79e2a716-e900-428d-8266-50a47bd17327.jpeg"},"Release Date":"2022-04-25","Image":"Please upgrade your plan to get access to product images"},{"Product":{"id":"657f7ddd52e5be4207199935","Brand":"Microsoft","Category":"Laptops","Model":"Microsoft Surface Laptop","Version":"JKR-00057"},"Image":"Please upgrade your plan to get access to product images"},{"Product":{"id":"657f7dde52e5be42071a678f","Brand":"Microsoft","Category":"Laptops","Model":"Microsoft Surface Laptop","Version":"JKY-00003"},"Image":"Please upgrade your plan to get access to product images"},{"Product":{"id":"657f7dde52e5be42071a68b2","Brand":"Microsoft","Category":"Laptops","Model":"Microsoft Surface Laptop","Version":"JKR-00004"},"Image":"Please upgrade your plan to get access to product images"},{"Product":{"id":"657f7dde52e5be42071a679c","Brand":"Microsoft","Category":"Laptops","Model":"Microsoft Surface Laptop","Version":"JKX-00004"},"Image":"Please upgrade your plan to get access to product images"},{"Product":{"id":"66a4c8adecb0600946070dd7","Brand":"HP","Category":"Laptops","Model":"HP ENVY Laptop","Version":"7Z983EA"},"Release Date":"2023-04-28","Image":"Please upgrade your plan to get access to product images"},{"Product":{"id":"657f7dde52e5be42071a6899","Brand":"Microsoft","Category":"Laptops","Model":"Microsoft Surface Laptop","Version":"DAL-00012"},"Image":"Please upgrade your plan to get access to product images"},{"Product":{"id":"657f7dde52e5be42071a6819","Brand":"Microsoft","Category":"Laptops","Model":"Microsoft Surface Laptop","Version":"JKQ-00003"},"Image":"Please upgrade your plan to get access to product images"},{"Product":{"id":"657f7dde52e5be42071a67fa","Brand":"Microsoft","Category":"Laptops","Model":"Microsoft Surface Laptop","Version":"DAG-00068"},"Image":"Please upgrade your plan to get access to product images"},{"Product":{"id":"657f7dde52e5be42071a68a2","Brand":"Microsoft","Category":"Laptops","Model":"Microsoft Surface Laptop","Version":"DAM-00068"},"Image":"Please upgrade your plan to get access to product images"},{"Product":{"id":"657f7dde52e5be42071a66e0","Brand":"Medion","Category":"Laptops","Model":"Medion laptop Akoya","Version":"30023560"},"Image":"Please upgrade your plan to get access to product images"}]}